Starting weekly assessment for Hanyun, Week3

Current Points = 100

Note that: 
(1) Major sections begin with a double "====" line 
(2) Subsections begin with a single "====" line 
(3) Code output or text file content are printed within single "*****" lines 

======================================================================
======================================================================
Your Git repo size this week is about 5.93 MiB on disk 

PART 1: Checking project workflow...

Found the following directories in parent directory: Week1, Week7, Assessment, Week2, Mainproject, .git, Miniproject, Week3

Found the following files in parent directory: .gitignore, README.md

Checking for key files in parent directory...

Found .gitignore in parent directory, great! 

Printing contents of .gitignore:
**********************************************************************
*~

# Temporary files
*.tmp
*.swp
*.p

# VSC
*.vscode

# Python
*.py[cod]
__pycache__/

# R History files
*.Rhistory
*.Rapp.history

# R Session Data files
*.RData
*.tar.gz

# RStudio files
*.Rproj.user/

# Latex auxiliary files
*.aux
*.lof
*.log
*.lot
*.fls
*.out
*.toc
*.fmt
*.fot
*.cb
*.cb2
.*.lb

# Bibliography auxiliary files
*.bbl
*.bcf
*.blg
*-blx.aux
*-blx.bib
*.run.xml
**********************************************************************

Found README in parent directory, named: README.md

Printing contents of README.md:
**********************************************************************
# == CMEE Coursework Repository 2018-2019 ==
![Alt text](http://news.mit.edu/sites/mit.edu.newsoffice/files/images/2015/MIT-Data-Sci-Machine_0.jpg)
# Overview
  Include scripts and data for [CMEE coursework](http://nbviewer.jupyter.org/github/mhasoba/TheMulQuaBio/blob/master/notebooks/Index.ipynb), sorting by weeks.  
  Author: Hanyun Zhang (hanyun.zhang18@imperial.ac.uk)  
  Date: 2018-2019  
  Input files are in sandbox or data directory.Output files are saved to results.  
  Please find detailed description in weekly README.txt.

# Contents
## [Week1](https://bitbucket.org/yuerua/cmeecoursework/src/master/Week1/)
####[Introduction to Unix](http://nbviewer.jupyter.org/github/mhasoba/TheMulQuaBio/blob/master/notebooks/01-Unix.ipynb)
####[Shell scripting](http://nbviewer.jupyter.org/github/mhasoba/TheMulQuaBio/blob/master/notebooks/02-ShellScripting.ipynb)
  * Command arguments
  * Redirection and pipes
  * Wildcards
  * Using grep
  * Finding files
####[Version Control with Git](http://nbviewer.jupyter.org/github/mhasoba/TheMulQuaBio/blob/master/notebooks/03-Git.ipynb)
####[Scientific documents with LATEX](http://nbviewer.jupyter.org/github/mhasoba/TheMulQuaBio/blob/master/notebooks/04-LaTeX.ipynb)

## [Week2](https://bitbucket.org/yuerua/cmeecoursework/src/master/Week2/)
####[Biological Computing in Python-I](http://nbviewer.jupyter.org/github/mhasoba/TheMulQuaBio/blob/master/notebooks/05-Python_I.ipynb)
  * Python basics
  * Python Input/Output
  * Python programs
  * Control statements
  * Debugging

## [Week3](https://bitbucket.org/yuerua/cmeecoursework/src/master/Week3/)
####[Biological Computing in R](http://nbviewer.jupyter.org/github/mhasoba/TheMulQuaBio/blob/master/notebooks/07-R.ipynb)
  * R basics
  * Vectorization
  * Debugging
  * Sweave and knitr
  * Data wrangling
  * Data visualization
  * qplot and ggplot
 
## [Week7](https://bitbucket.org/yuerua/cmeecoursework/src/master/Week7/)
####[Biological Computing in Python-II](http://nbviewer.jupyter.org/github/mhasoba/TheMulQuaBio/blob/master/notebooks/06-Python_II.ipynb)
  * Manipulation of scipy arrays
  * Plotting with matplotlib
  * Profiling with run -p and timeit
  * Networks
  * Regular expressions
  * Build workflows

# Dependencies
 
### Ubuntu 16.04
 
### Python 3.6.3
####Modules
  * pickle
  * numpy
  * scipy
  * pandas
  * networkx
  * matplotlib
 
### R 3.5.1
####Packages
  * lattice
  * reshape2
  * dplyr
  * tidyr
  * ggplot2
  * maps
  * igraph
  * knitr

### LaTeX



     


**********************************************************************

======================================================================
Looking for the weekly directories...

Found 4 weekly directories: Week1, Week2, Week3, Week7

The Week3 directory will be assessed 

======================================================================
======================================================================
PART 2: Checking weekly code and workflow...

======================================================================
Assessing WEEK3...

Found the following directories: code, sandbox, data, results

Found the following files: README.txt

Checking for readme file in weekly directory...

Found README in parent directory, named: README.txt

Printing contents of README.txt:
**********************************************************************
=== MY CMEE Coursework Directory - Week 3 ===

Author: Hanyun Zhang hanyun.zhang18@imperial.ac.uk
Date: Oct 2018

== Description ==

Include the script, data and sandbox files for the 3rd week practicals.

# Input files are in /data #
# Output files are saved to /results #

== List of files ==               == Description == 

├── code
│   ├── apply2.R                  # Applying the same function to rows/colums of a matrix
│   ├── apply.R                   # Applying the same function to rows/colums of a matrix
│   ├── basic_io.R                # Example of data input and output in R
│   ├── boilerplate.R             # A boilerplate R script
│   ├── break.R                   # Example of breaking out of loops
│   ├── browse.R                  # Debugging with browser
│   ├── control.R                 # Some code exemplifying control flow constructs in R   
│   ├── DataWrang.R               # Examples of data wrangling using reshape2
│   ├── DataWrangTidy.R           # Examples of data wrangling using dplyr and tidyr
│   ├── get_TreeHeight.py         # Calculates heights of trees given distance of each tree from its base and angle to its top, using  the trigonometric formula
│   ├── get_TreeHeight.R          # Calculate tree heights and output to a file with file name defined by the input file name
│   ├── Girko.R                   # Plot the Girko's law simulation
│   ├── LaTeX 
│   │   ├── TAutoCorr.pdf 
│   │   └── TAutoCorr.Rnw         # Generate pdf with knitr
│   ├── maps.R                    # Draw a world map and plot all the locations from the data set
│   ├── MyBars.R                  # Examples of plot annotation
│   ├── next.R                    # Skip to next iteration of a loop with next
│   ├── plotLin.R                 # Plot and annotate a linear regression model
│   ├── PP_Lattice.R              # Draws and saves three lattice graphs by feeding interaction type
│   ├── PP_Regress_loc.R          # Draw a regression plot with linear model with the data grouped by type of feeding interaction, predator lifestage and location
│   ├── PP_Regress.R              # Draw a regression plot with linear model with the data grouped by type of feeding interaction and predator lifestage
│   ├── run_get_TreeHeight.sh     # Run get_TreeHeight.R with trees.csv as an example 
│   ├── sample.R                  # Examples for vectorization
│   ├── TAutoCorr.R               # Investigate the correlation between the temperature of successive years
│   ├── TreeHeight.R              # Calculate the tree heights
│   ├── try.R                     # Run a simulation that involves sampling from a population with try
│   ├── Vectorize1.py             # A python version of Vectorize1.R, sums all elements in a matrix using loop or vectorization
│   ├── Vectorize1.R              # Different ways to run the stochastic Ricker model
│   ├── Vectorize2.py             # A python version of Vectorize2.R, uses different ways to run the stochastic Ricker model
│   ├── Vectorize2.R              # Different ways to run the stochastic Ricker model
│   └── Vectorize_Compare.sh      # Run four Vectorize scripts and compare their computational speed
├── data
│   ├── EcolArchives-E089-51-D1.csv
│   ├── GPDDFiltered.RData
│   ├── KeyWestAnnualMeanTemperature.RData
│   ├── PoundHillData.csv
│   ├── PoundHillMetaData.csv
│   ├── Results.txt
│   └── trees.csv
├── README.txt
├── results
└── sandbox
**********************************************************************

Found following files in results directory: README.txt...
Found 29 code files: browse.R, PP_Regress.R, maps.R, Vectorize2.py, sample.R, Vectorize_Compare.sh, run_get_TreeHeight.sh, get_TreeHeight.py,  PP_Lattice.R, boilerplate.R, TreeHeight.R, next.R, Girko.R, Vectorize1.R, break.R, plotLin.R, apply.R, basic_io.R, Vectorize1.py, try.R, apply2.R, get_TreeHeight.R, TAutoCorr.R, Vectorize2.R, DataWrangTidy.R, PP_Regress_loc.R, DataWrang.R, MyBars.R, control.R

======================================================================
Testing script/code files...

======================================================================
Inspecting script file browse.R...

File contents are:
**********************************************************************
# browse.R
# Author: Hanyun Zhang hanyun.zhang18@imperial.ac.uk
# Desc: Debugging with browser
# Arguments: none
# Date: Oct 2018

Exponential <- function(N0 = 1, r = 1, generations = 10){
  # Runs a simulation of exponential growth
  # Returns a vector of length generations
  
  N <- rep(NA, generations)    # Creates a vector of NA
  
  N[1] <- N0
  for (t in 2:generations){
    N[t] <- N[t-1] * exp(r)
    browser()
  }
  return (N)
}

plot(Exponential(), type="l", main="Exponential growth")**********************************************************************

Testing browse.R...

Output (only first 500 characters): 

**********************************************************************
Called from: Exponential()
debug: N[t] <- N[t - 1] * exp(r)
debug: browser()
debug: N[t] <- N[t - 1] * exp(r)
debug: browser()
debug: N[t] <- N[t - 1] * exp(r)
debug: browser()
debug: N[t] <- N[t - 1] * exp(r)
debug: browser()
debug: N[t] <- N[t - 1] * exp(r)
debug: browser()
debug: N[t] <- N[t - 1] * exp(r)
debug: browser()
debug: N[t] <- N[t - 1] * exp(r)
debug: browser()
debug: N[t] <- N[t - 1] * exp(r)
debug: browser()

**********************************************************************

Code ran without errors

Time consumed = 0.10601s

======================================================================
Inspecting script file PP_Regress.R...

File contents are:
**********************************************************************
# PP_Regress.R
# Author: Hanyun Zhang hanyun.zhang18@imperial.ac.uk
# Desc: Draw a regression plot with linear model and saves
# the regression results to a .csv file, with the data grouped
# by type of feeding interaction and predator lifestage
# Arguments: none
# Date: Oct 2018

## Import predator-prey dataset
MyDF <- read.csv("../data/EcolArchives-E089-51-D1.csv")

## Draw a regression plot and saves to pdf
library(ggplot2) # Import library

pdf("../results/PP_Regress.pdf") # Generate a pdf

print(p <- ggplot(MyDF, aes(x = Prey.mass, y = Predator.mass, colour = Predator.lifestage)) + # Draw scatterplot of prey.mass against predator mass, coloured by predator lifestage
  scale_x_log10() + scale_y_log10() +                                                         # Transfer the axes
  geom_point(shape = 3) +                                                                     # Set point shape
  geom_smooth(method = "lm", fullrange = T) +                                                 # Plot a linear regression and smoother intervals, and extend lines to the full range
  facet_grid(MyDF$Type.of.feeding.interaction ~ .) +                                          # Display data in multiple panels according to corresponding feeding types
  xlab("Prey Mass in grams") + ylab("Predator Mass in grams") +                               # Add labels
  theme_bw() +                                                                                # Set background colour to white
  coord_fixed(ratio = 0.3) +                                                                  # Set the scale of figure
  theme(legend.position = "bottom") +                                                         # Set legend position to the bottom
  theme(legend.text = (element_text(size = 8))) +                                             # Set font size of the legend text
  guides(color = guide_legend(nrow = 1)))                                                     # Arrange legend elements in one row

graphics.off()


## Create a data frame for linear regression results
# dplyr groups data frame by lifestage and feeding type, 
# then applys the function to each piece and 
# returns results to a new data frame.

library(dplyr)

# Create a function to extract values from linear regression summary
Values <- function(Predator.mass, Prey.mass){
  lmmodel <- lm(log(Predator.mass) ~ log(Prey.mass))
  my_lm <- summary(lmmodel)
  Slop <- my_lm$coefficients[2]
  Intercept <- my_lm$coefficients[1]
  Rsquared <- my_lm$adj.r.squared
  Fvalue <- my_lm$fstatistic[[1]] # Double "[]" gets the number from a vector mixed with text 
  Pvalue <- my_lm$coefficients[8]
  return(c(Slop, Intercept, Rsquared, Fvalue, Pvalue))
}


# Group_by organizes data set into groups, summarise applys the functions to each group
# then returns results to a new data frame.
results <- MyDF %>% group_by(Predator.lifestage, Type.of.feeding.interaction) %>%
            summarise(Slop = Values(Predator.mass, Prey.mass)[1],
            Intercept = Values(Predator.mass, Prey.mass)[2],
            Rsquared = Values(Predator.mass, Prey.mass)[3],
            Fvalue = Values(Predator.mass, Prey.mass)[4], 
            Pvalue = Values(Predator.mass, Prey.mass)[5])

# Define header names for each column
colnames(results) <- c("Predator.lifestage", "Type.of.feeding.interaction", "regression slope", 
                       "regression intercept", "R^2", " F-statistic value", "p-value of the overall regression")

## Save results to a file
write.csv(results, "../results/PP_Regress_Results.csv", row.names = F)

## Note: NA occurs when the sample size of a group is two or one.
**********************************************************************

Testing PP_Regress.R...

Output (only first 500 characters): 

**********************************************************************

**********************************************************************

Encountered error:
Warning message:
In qt((1 - level)/2, df) : NaNs produced

Attaching package: ‘dplyr’

The following objects are masked from ‘package:stats’:

    filter, lag

The following objects are masked from ‘package:base’:

    intersect, setdiff, setequal, union


======================================================================
Inspecting script file maps.R...

File contents are:
**********************************************************************
# maps.R
# Author: Hanyun Zhang hanyun.zhang18@imperial.ac.uk
# Desc: Draw a world map and plot all the locations from the data set
# Arguments: none
# Date: Oct 2018

# Require package maps
# install.packages("maps")

# Loads the maps package
library(maps)

# Loads the GPDD data
load("../data/GPDDFiltered.RData")

# Creates a world map
map("world", fill=TRUE, col="white", bg="lightblue", ylim=c(-60, 90), mar=c(0,0,0,0))

# Superimposes all the locations in GPDD data
points(gpdd$long, gpdd$lat, col="red", pch=16)

# Expected biases: The locations mainly focused on Europe and North America, 
# which may cause biases when the data is examinated on a global scale.**********************************************************************

Testing maps.R...

Output (only first 500 characters): 

**********************************************************************

**********************************************************************

Code ran without errors

Time consumed = 0.40380s

======================================================================
Inspecting script file Vectorize2.py...

File contents are:
**********************************************************************
#!/usr/bin/env python3

""" A python version of Vectorize2.R, uses different ways 
to run the stochastic Ricker model"""

__appname__ = 'Vectorize2.py'
__author__ = 'Hanyun Zhang (hanyun.zhang18@imperial.ac.uk)'
__version__ = '0.0.1'

# Imports
import numpy as np

# Function
def matrix(numyears, p0):
    """ Create an empty matrix with random values assigned to the first row """
    N = np.zeros(shape = (numyears,len(p0[0])))
    N[0] = p0[0]
    return(N)
        
def stochrick(numyears = 100, p0 = np.random.random_sample((1,1000)), r=1.2, K=1, sigma=0.2):
    """ Calculate the Ricker model with looping """    
    N = matrix(numyears, p0)
    for pop in range(len(p0[0])):
        for yr in range(1, numyears):
            N[yr][pop] = N[yr-1][pop] * np.exp(r * (1-N[yr-1][pop]/K)) + np.random.normal(0, sigma, 1)
    return(N)


def stochrickvect(numyears = 100, p0 = np.random.random_sample((1,1000)), r=1.2, K=1, sigma=0.2):
    """ Calculate the Ricker model with vectorization """    
    N = matrix(numyears, p0)
    for yr in range(1, numyears):
        N[yr] = N[yr-1] * np.exp(r * (1-N[yr-1]/K)) + np.random.normal(0, sigma, 1) 
    return(N)

np.seterr(all='ignore') # The np.exp function rises a runtime warning because some outputs are
# too large for the dtype of the numpy array to store. The warning is ignored by numpy setting. 


## Calculate the Ricker model with loop
# Record the time taken
from timeit import default_timer as timer
start = timer()
data = stochrick()
end = timer()
timetaken = end - start
print ("Looping Stochastic Ricker takes:", timetaken)

# Calculate the vectorized Ricker iteration
# Record the time taken
start = timer()
data = stochrickvect()
end = timer()
timetaken = end - start
print ("Vectorized Stochastic Ricker takes:", timetaken)

**********************************************************************

Testing Vectorize2.py...

Vectorize2.py is a Python script file;
 checking for docstrings...

Found one or more doctrings!

Output (only first 500 characters): 

**********************************************************************
Looping Stochastic Ricker takes: 0.7823329200036824
Vectorized Stochastic Ricker takes: 0.003489939001156017

**********************************************************************

Code ran without errors

Time consumed = 0.92125s

======================================================================
Inspecting script file sample.R...

File contents are:
**********************************************************************
# sample.R
# Author: Hanyun Zhang hanyun.zhang18@imperial.ac.uk
# Desc: Examples for vectorization
# Arguments: none
# Date: Oct 2018

x <- rnorm(50) #Generate your population
doit <- function(x){
    x <- sample(x, replace = TRUE)
    if(length(unique(x)) > 30) { #only take mean if sample was sufficient
         print(paste("Mean of this sample was:", as.character(mean(x))))
         } 
    }

## Run 100 iterations using vectorization:
result <- lapply(1:100, function(i) doit(x))

## Or using a for loop:
result <- vector("list", 100) #Preallocate/Initialize
for(i in 1:100) {
    result[[i]] <- doit(x)
}**********************************************************************

Testing sample.R...

Output (only first 500 characters): 

**********************************************************************
[1] "Mean of this sample was: -0.157035793653957"
[1] "Mean of this sample was: 0.0516102794129751"
[1] "Mean of this sample was: -0.1737113539983"
[1] "Mean of this sample was: -0.527131197585476"
[1] "Mean of this sample was: -0.249539927369957"
[1] "Mean of this sample was: 0.0177010024890094"
[1] "Mean of this sample was: -0.397123613686562"
[1] "Mean of this sample was: -0.340584450941619"
[1] "Mean of this sample was: -0.529117599060441"
[1] "Mean of this sample was: 0.0944944969600867"
[1]
**********************************************************************

Code ran without errors

Time consumed = 0.10039s

======================================================================
Inspecting script file Vectorize_Compare.sh...

File contents are:
**********************************************************************
#!/bin/bash
# Script: Vectorize_Compare.sh
# Author: Hanyun Zhang hanyun.zhang18@imperial.ac.uk
#Desc: Run four Vectorize scripts and compare their computational speed
#Arguments: none
# Date: Oct 2018
echo -e "\n Computing time for Vectorize1.R \n"
Rscript Vectorize1.R
echo -e "\n Computing time for Vectorize1.py \n"
python3 Vectorize1.py
echo -e "\n Computing time for Vectorize2.R \n"
Rscript Vectorize2.R
echo -e "\n Computing time for Vectorize2.py \n"
python3 Vectorize2.py
**********************************************************************

Testing Vectorize_Compare.sh...

Output (only first 500 characters): 

**********************************************************************

 Computing time for Vectorize1.R 

[1] "Sum of all elements in the matrix is 500090.147735775"
[1] "Sum with looping takes:"
   user  system elapsed 
  0.080   0.000   0.079 
[1] "Sum with built in function takes:"
   user  system elapsed 
  0.000   0.000   0.001 

 Computing time for Vectorize1.py 

Looping sum is  500154.635405
Looping sum takes:  0.28166181698907167
Vectorized sum is  500154.635405
Vectorized sum takes:  0.07158175698714331

 Computing time for Vectorize2.R 

[1] "Looping Sto
**********************************************************************

Code ran without errors

Time consumed = 2.15250s

======================================================================
Inspecting script file run_get_TreeHeight.sh...

File contents are:
**********************************************************************
#!/bin/bash
# run_get_TreeHeight.sh 
# Author: Hanyun Zhang hanyun.zhang18@imperial.ac.uk
# Desc: run get_TreeHeight.R with trees.csv as an example 
# Arguments: 1-> ../data/trees.csv
# Date: Oct 2018

Rscript get_TreeHeight.R ../data/trees.csv
**********************************************************************

Testing run_get_TreeHeight.sh...

Output (only first 500 characters): 

**********************************************************************
  [1] "Tree height is: 27.8021161438536" "Tree height is: 45.2460250644405"
  [3] "Tree height is: 14.6654828109493" "Tree height is: 14.9341751666304"
  [5] "Tree height is: 35.9703591412599" "Tree height is: 32.4102133664874"
  [7] "Tree height is: 17.4582436344144" "Tree height is: 30.1373803987097"
  [9] "Tree height is: 20.3124778877177" "Tree height is: 24.4316633466933"
 [11] "Tree height is: 27.5021323376702" "Tree height is: 25.1559006982628"
 [13] "Tree height is: 29.3924796426504" "Tre
**********************************************************************

Code ran without errors

Time consumed = 0.08662s

======================================================================
Inspecting script file get_TreeHeight.py...

File contents are:
**********************************************************************
#!/usr/bin/env python3

""" A function calculates heights of trees given distance of each tree 
from its base and angle to its top, using  the trigonometric formula"""

__appname__ = 'get_TreeHeight.py'
__author__ = 'Hanyun Zhang (hanyun.zhang18@imperial.ac.uk)'
__version__ = '0.0.1'

## Import
import csv
import sys
import numpy as np # For math calculation
import pandas

## Data
f = open(sys.argv[1],"r")

# Pandas allows the csv file to be read as a dataframe
Data = pandas.read_csv(f)

## Function
def TreeHeight(degrees, distance):
    """ Calculate treeheights based on degrees and distance """
    radians = np.deg2rad(degrees)
    height = distance * np.tan(radians)
    return (height)

# Takes the degrees and distance from corresponding columns, calculate treeheights
# and saves to a new column
Data["Tree.Height.m"] = TreeHeight(Data["Angle.degrees"],Data["Distance.m"])

## Output 
# Define the name of the output file based on filename of the argument
# Copy the comment line argument
path = sys.argv[1]
# Extract the filename from input path
filename = path.split("/")[-1].split(".")[0]
# Set the output file
output__path = "../results/" + filename + "_treeheights.csv"
# Save to the defined output file
Data.to_csv(output__path)

f.close()







**********************************************************************

Testing get_TreeHeight.py...

get_TreeHeight.py is a Python script file;
 checking for docstrings...

Found one or more doctrings!

Output (only first 500 characters): 

**********************************************************************

**********************************************************************

Encountered error:
Traceback (most recent call last):
  File "get_TreeHeight.py", line 17, in <module>
    f = open(sys.argv[1],"r")
IndexError: list index out of range

======================================================================
Inspecting script file  PP_Lattice.R...

File contents are:
**********************************************************************
# PP_Lattice.R
# Author: Hanyun Zhang hanyun.zhang18@imperial.ac.uk
# Desc: Draws and saves three lattice graphs by feeding interaction type.
# Arguments: none
# Date: Oct 2018

# Import predator-prey dataset
MyDF <- read.csv("../data/EcolArchives-E089-51-D1.csv")

##  Draws three lattice graphs by feeding interaction type
##  and saves as seperated pdf files 
library(lattice)
#  predator mass
pdf("../results/Pred_Lattice.pdf")
densityplot(~log(Predator.mass) | Type.of.feeding.interaction, data=MyDF)
graphics.off()

#  prey mass
pdf("../results/Prey_Lattice.pdf")
densityplot(~log(Prey.mass) | Type.of.feeding.interaction, data=MyDF)
graphics.off()

#  size ratio of prey mass over predator mass
pdf("../results/SizeRatio_Lattice.pdf")
densityplot(~log(Predator.mass/Prey.mass) | Type.of.feeding.interaction, data=MyDF)
graphics.off()

#  calculate the mean and median of log predator mass, prey mass 
#  and predator-prey size-ratios by feeding type and save to a csv file

LogPredatorMassMean <- tapply(log(MyDF$Predator.mass), MyDF$Type.of.feeding.interaction, mean)
LogPredatorMassMedian <- tapply(log(MyDF$Predator.mass), MyDF$Type.of.feeding.interaction, median)
LogPreyMassMean <- tapply(log(MyDF$Prey.mass), MyDF$Type.of.feeding.interaction, mean)
LogPreyMassMedian <- tapply(log(MyDF$Prey.mass), MyDF$Type.of.feeding.interaction, median)
LogSizeRatioMean <- tapply(log(MyDF$Predator.mass/MyDF$Prey.mass), MyDF$Type.of.feeding.interaction, mean)
LogSizeRatioMedian <- tapply(log(MyDF$Predator.mass/MyDF$Prey.mass), MyDF$Type.of.feeding.interaction, median)

# Generate a data frame to organize the results
Feedingtype <- levels(MyDF$Type.of.feeding.interaction)
Result <- data.frame(Feedingtype, LogPredatorMassMean, LogPredatorMassMedian, LogPreyMassMean, 
                     LogPreyMassMedian, LogSizeRatioMean, LogSizeRatioMedian, row.names = NULL)
# Save to file
write.csv(Result, "../results/PP_Results.csv", row.names = F)


**********************************************************************

Testing  PP_Lattice.R...

Output (only first 500 characters): 

**********************************************************************
Fatal error: cannot open file 'PP_Lattice.R': No such file or directory

**********************************************************************

Code ran without errors

Time consumed = 0.01208s

======================================================================
Inspecting script file boilerplate.R...

File contents are:
**********************************************************************
# boilerplate.R
# Author: Hanyun Zhang hanyun.zhang18@imperial.ac.uk
# Desc: A boilerplate R script
# Arguments: none
# Date: Oct 2018

MyFunction <- function(Arg1, Arg2){
  
  # Statements involving Arg1, Arg2:
  print(paste("Argument", as.character(Arg1), "is a", class(Arg1))) # print Arg1's type
  print(paste("Argument", as.character(Arg2), "is a", class(Arg2))) # print Arg2's type
  
  return (c(Arg1, Arg2)) #this is optional, but very useful
}

MyFunction(1,2) #test the function
MyFunction("Riki","Tiki") #A different test**********************************************************************

Testing boilerplate.R...

Output (only first 500 characters): 

**********************************************************************
[1] "Argument 1 is a numeric"
[1] "Argument 2 is a numeric"
[1] 1 2
[1] "Argument Riki is a character"
[1] "Argument Tiki is a character"
[1] "Riki" "Tiki"

**********************************************************************

Code ran without errors

Time consumed = 0.08831s

======================================================================
Inspecting script file TreeHeight.R...

File contents are:
**********************************************************************
# TreeHeight.R
# Author: Hanyun Zhang hanyun.zhang18@imperial.ac.uk
# Desc: Calculate tree heights 
# Arguments: none
# Date: Oct 2018

# This function calculates heights of trees given distance of each tree 
# from its base and angle to its top, using  the trigonometric formula 
#
# height = distance * tan(radians)
#
# ARGUMENTS
# degrees:   The angle of elevation of tree
# distance:  The distance from base of tree (e.g., meters)
#
# OUTPUT
# The heights of the tree, same units as "distance"

# Input
Data <- read.csv("../data/trees.csv", header = TRUE) 

# Calculate treeheights based on degrees and distance
TreeHeight <- function(degrees, distance){
  radians <- degrees * pi / 180
  height <- distance * tan(radians)
  print(paste("Tree height is:", height))
  
  return (height)
}
# Takes the degrees and distance in trees.csv
TreeHts <- TreeHeight(Data[,3], Data[,2])
# Add a new column
Data$Tree.Height.m <- TreeHts
# saves output to a csv file
write.csv(Data, "../results/TreeHts.csv", row.names=TRUE)
**********************************************************************

Testing TreeHeight.R...

Output (only first 500 characters): 

**********************************************************************
  [1] "Tree height is: 27.8021161438536" "Tree height is: 45.2460250644405"
  [3] "Tree height is: 14.6654828109493" "Tree height is: 14.9341751666304"
  [5] "Tree height is: 35.9703591412599" "Tree height is: 32.4102133664874"
  [7] "Tree height is: 17.4582436344144" "Tree height is: 30.1373803987097"
  [9] "Tree height is: 20.3124778877177" "Tree height is: 24.4316633466933"
 [11] "Tree height is: 27.5021323376702" "Tree height is: 25.1559006982628"
 [13] "Tree height is: 29.3924796426504" "Tre
**********************************************************************

Code ran without errors

Time consumed = 0.07858s

======================================================================
Inspecting script file next.R...

File contents are:
**********************************************************************
# next.R
# Author: Hanyun Zhang hanyun.zhang18@imperial.ac.uk
# Desc: Skip to next iteration of a loop with next
# Arguments: none
# Date: Oct 2018

for(i in 1:10){
  if ((i %% 2) == 0)
    next # pass to the next iteration of loop 
  print(i)
}**********************************************************************

Testing next.R...

Output (only first 500 characters): 

**********************************************************************
[1] 1
[1] 3
[1] 5
[1] 7
[1] 9

**********************************************************************

Code ran without errors

Time consumed = 0.09961s

======================================================================
Inspecting script file Girko.R...

File contents are:
**********************************************************************
# Girko.R
# Author: Hanyun Zhang hanyun.zhang18@imperial.ac.uk
# Desc:  Plot the Girko's law simulation
# Arguments: none
# Date: Oct 2018

# Installation
# install.packages("ggplot2")

build_ellipse <- function(hradius, vradius){ # function that returns an ellipse
  npoints = 250
  a <- seq(0, 2 * pi, length = npoints + 1)
  x <- hradius * cos(a)
  y <- vradius * sin(a)  
  return(data.frame(x = x, y = y))
}

N <- 250 # Assign size of the matrix

M <- matrix(rnorm(N * N), N, N) # Build the matrix

eigvals <- eigen(M)$values # Find the eigenvalues

eigDF <- data.frame("Real" = Re(eigvals), "Imaginary" = Im(eigvals)) # Build a dataframe

my_radius <- sqrt(N) # The radius of the circle is sqrt(N)

ellDF <- build_ellipse(my_radius, my_radius) # Dataframe to plot the ellipse

names(ellDF) <- c("Real", "Imaginary") # rename the columns

require(ggplot2)

pdf("../results/Girko.pdf")
# plot the eigenvalues
p <- ggplot(eigDF, aes(x = Real, y = Imaginary))
p <- p +
  geom_point(shape = I(3)) +
  theme(legend.position = "none")

# now add the vertical and horizontal line
p <- p + geom_hline(aes(yintercept = 0))
p <- p + geom_vline(aes(xintercept = 0))

# finally, add the ellipse
p <- p + geom_polygon(data = ellDF, aes(x = Real, y = Imaginary, alpha = 1/20, fill = "red"))
p
graphics.off()
**********************************************************************

Testing Girko.R...

Output (only first 500 characters): 

**********************************************************************

**********************************************************************

Encountered error:
Loading required package: ggplot2

======================================================================
Inspecting script file Vectorize1.R...

File contents are:
**********************************************************************
# Vectorize1.R
# Author: Hanyun Zhang hanyun.zhang18@imperial.ac.uk
# Desc: sums all elements in a matrix using loop or vectorization
# Arguments: none
# Date: Oct 2018

M <- matrix(runif(1000000),1000,1000)

SumAllElements <- function(M){
  Dimensions <- dim(M)
  Tot <- 0
  for (i in 1:Dimensions[1]){
    for (j in 1:Dimensions[2]){
      Tot <- Tot + M[i,j]
    }
  }
  return (Tot)
}

print(paste("Sum of all elements in the matrix is", sum(M)))
print("Sum with looping takes:")
print(system.time(SumAllElements(M)))
print("Sum with built in function takes:")
print(system.time(sum(M))) # Inbuilt function sum() uses vectorization to avoid looping**********************************************************************

Testing Vectorize1.R...

Output (only first 500 characters): 

**********************************************************************
[1] "Sum of all elements in the matrix is 500145.896895939"
[1] "Sum with looping takes:"
   user  system elapsed 
   0.08    0.00    0.08 
[1] "Sum with built in function takes:"
   user  system elapsed 
  0.000   0.000   0.001 

**********************************************************************

Code ran without errors

Time consumed = 0.22285s

======================================================================
Inspecting script file break.R...

File contents are:
**********************************************************************
# break.R
# Author: Hanyun Zhang hanyun.zhang18@imperial.ac.uk
# Desc: Example of breaking out of loops
# Arguments: none
# Date: Oct 2018

i <- 0 #Initialize i
while(i < Inf) {
  if (i == 20) {
    break } # Break out of the while loop! 
  else { 
    cat("i equals " , i , " \n")
    i <- i + 1 # Update i
  }
}**********************************************************************

Testing break.R...

Output (only first 500 characters): 

**********************************************************************
i equals  0  
i equals  1  
i equals  2  
i equals  3  
i equals  4  
i equals  5  
i equals  6  
i equals  7  
i equals  8  
i equals  9  
i equals  10  
i equals  11  
i equals  12  
i equals  13  
i equals  14  
i equals  15  
i equals  16  
i equals  17  
i equals  18  
i equals  19  

**********************************************************************

Code ran without errors

Time consumed = 0.08805s

======================================================================
Inspecting script file plotLin.R...

File contents are:
**********************************************************************
# plotLin.R
# Author: Hanyun Zhang hanyun.zhang18@imperial.ac.uk
# Desc: Plot and annotate a linear regression model
# Arguments: none
# Date: Oct 2018

# Import library
require(ggplot2)

# Generate a pdf to save the figure
pdf("../results/MyLinReg.pdf")

# First create some linear regression "data"


x <- seq(0, 100, by = 0.1)
y <- -4. + 0.25 * x +
  rnorm(length(x), mean = 0., sd = 2.5)

# and put them in a dataframe
my_data <- data.frame(x = x, y = y)

# perform a linear regression
my_lm <- summary(lm(y ~ x, data = my_data))

# plot the data
p <-  ggplot(my_data, aes(x = x, y = y,
                          colour = abs(my_lm$residual))
) +
  geom_point() +
  scale_colour_gradient(low = "black", high = "red") +
  theme(legend.position = "none") +
  scale_x_continuous(
    expression(alpha^2 * pi / beta * sqrt(Theta)))

# add the regression line
p <- p + geom_abline(
  intercept = my_lm$coefficients[1][1],
  slope = my_lm$coefficients[2][1],
  colour = "red")
# throw some math on the plot
p <- p + geom_text(aes(x = 60, y = 0,
                       label = "sqrt(alpha) * 2* pi"), 
                   parse = TRUE, size = 6, 
                   colour = "blue")

p
graphics.off()**********************************************************************

Testing plotLin.R...

Output (only first 500 characters): 

**********************************************************************

**********************************************************************

Encountered error:
Loading required package: ggplot2

======================================================================
Inspecting script file apply.R...

File contents are:
**********************************************************************
# apply.R
# Author: Hanyun Zhang hanyun.zhang18@imperial.ac.uk
# Desc: applying the same function to rows/colums of a matrix
# Arguments: none
# Date: Oct 2018


## Build a random matrix
M <- matrix(rnorm(100), 10, 10)

## Take the mean of each row
RowMeans <- apply(M, 1, mean)
print (RowMeans)

## Now the variance
RowVars <- apply(M, 1, var)
print (RowVars)

## By column
ColMeans <- apply(M, 2, mean)
print (ColMeans)**********************************************************************

Testing apply.R...

Output (only first 500 characters): 

**********************************************************************
 [1] -0.14790684 -0.09925471  0.33631721  0.02015968  0.30315411  0.40888504
 [7]  0.03213692 -0.60099229  0.17733761  0.50620043
 [1] 1.9318200 0.8613904 0.6115220 0.7527569 0.4203387 1.6908433 0.5729152
 [8] 0.8277949 0.9083608 0.5520136
 [1] -0.04835366 -0.03450127  0.18906191  0.54086360  0.44179073  0.17930452
 [7]  0.04673272 -0.08247330 -0.36370179  0.06731368

**********************************************************************

Code ran without errors

Time consumed = 0.07122s

======================================================================
Inspecting script file basic_io.R...

File contents are:
**********************************************************************
# basic_io.R
# Author: Hanyun Zhang hanyun.zhang18@imperial.ac.uk
# Desc: Example of data input and output in R
# Arguments: none
# Date: Oct 2018

MyData <- read.csv("../data/trees.csv", header = TRUE) 
write.csv(MyData, "../results/MyData.csv")
write.table(MyData[1,], file = "../results/MyData.csv",append=TRUE)
write.csv(MyData, "../results/MyData.csv", row.names=TRUE)
write.table(MyData, "../results/MyData.csv", col.names=FALSE)**********************************************************************

Testing basic_io.R...

Output (only first 500 characters): 

**********************************************************************

**********************************************************************

Encountered error:
Warning message:
In write.table(MyData[1, ], file = "../results/MyData.csv", append = TRUE) :
  appending column names to file

======================================================================
Inspecting script file Vectorize1.py...

File contents are:
**********************************************************************
#!/usr/bin/env python3

""" A python version of Vectorize1.R, sums all elements in a matrix
using loop or vectorization"""

__appname__ = 'Vectorize1.py'
__author__ = 'Hanyun Zhang (hanyun.zhang18@imperial.ac.uk)'
__version__ = '0.0.1'

# Import 
import numpy as np

# Create a 1000 * 1000 array
M = np.random.random_sample((1000,1000))


def SumAllElements(M):
	""" Sum all elements in a matrix """
	Tot = 0
	for i in range(M.shape[0]):
		for j in range(M.shape[1]):
			Tot = Tot + M[i][j]
	return Tot

## Calculate sum using loop
# Record the time taken
from timeit import default_timer as timer
start = timer()
total = SumAllElements(M)
end = timer()
timetaken = end - start
print ("Looping sum is ", total)
print ("Looping sum takes: ", timetaken)

## Calculate sum with vectorization
start = timer()
total = sum(map(sum, M))
end = timer()
timetaken = end - start
print ("Vectorized sum is ", total)
print ("Vectorized sum takes: ", timetaken)


	
	

**********************************************************************

Testing Vectorize1.py...

Vectorize1.py is a Python script file;
 checking for docstrings...

Found one or more doctrings!

Output (only first 500 characters): 

**********************************************************************
Looping sum is  500118.716975
Looping sum takes:  0.2607823680154979
Vectorized sum is  500118.716975
Vectorized sum takes:  0.07201241498114541

**********************************************************************

Code ran without errors

Time consumed = 0.45787s

======================================================================
Inspecting script file try.R...

File contents are:
**********************************************************************
# try.R
# Author: Hanyun Zhang hanyun.zhang18@imperial.ac.uk
# Desc: run a simulation that involves sampling from a population with try
# Arguments: none
# Date: Oct 2018

x <- rnorm(50) #Generate the population
doit <- function(x){
  x <- sample(x, replace = TRUE)
  if(length(unique(x)) > 30) {#only take mean if sample was sufficient
    print(paste("Mean of this sample was:", as.character(mean(x))))
  } 
  else {
    stop("Couldn't calculate mean: too few unique points!")
  }
}

## Try using "try" with vectorization:
result <- lapply(1:100, function(i) try(doit(x), FALSE))

## Or using a for loop:
result <- vector("list", 100) #Preallocate/Initialize
for(i in 1:100) {
  result[[i]] <- try(doit(x), FALSE)
}**********************************************************************

Testing try.R...

Output (only first 500 characters): 

**********************************************************************
[1] "Mean of this sample was: 0.114994871821424"
[1] "Mean of this sample was: 0.211486000540803"
[1] "Mean of this sample was: 0.237691436030693"
[1] "Mean of this sample was: -0.0429735862502817"
[1] "Mean of this sample was: 0.12413419555264"
[1] "Mean of this sample was: -0.16869824944201"
[1] "Mean of this sample was: -0.0201305129670098"
[1] "Mean of this sample was: 0.0856899893779407"
[1] "Mean of this sample was: 0.0507623187363171"
[1] "Mean of this sample was: -0.0458829797121112"
[1] 
**********************************************************************

Encountered error:
Error in doit(x) : Couldn't calculate mean: too few unique points!
Error in doit(x) : Couldn't calculate mean: too few unique points!
Error in doit(x) : Couldn't calculate mean: too few unique points!
Error in doit(x) : Couldn't calculate mean: too few unique points!
Error in doit(x) : Couldn't calculate mean: too few unique points!
Error in doit(x) : Couldn't calculate mean: too few unique points!
Error in doit(x) : Couldn't calculate mean: too few unique points!
Error in doit(x) : Couldn't calculate mean: too few unique points!
Error in doit(x) : Couldn't calculate mean: too few unique points!
Error in doit(x) : Couldn't calculate mean: too few unique points!
Error in doit(x) : Couldn't calculate mean: too few unique points!
Error in doit(x) : Couldn't calculate mean: too few unique points!
Error in doit(x) : Couldn't calculate mean: too few unique points!
Error in doit(x) : Couldn't calculate mean: too few unique points!
Error in doit(x) : Couldn't calculate mean: too few unique points!
Error in doit(x) : Couldn't calculate mean: too few unique points!
Error in doit(x) : Couldn't calculate mean: too few unique points!
Error in doit(x) : Couldn't calculate mean: too few unique points!
Error in doit(x) : Couldn't calculate mean: too few unique points!
Error in doit(x) : Couldn't calculate mean: too few unique points!
Error in doit(x) : Couldn't calculate mean: too few unique points!
Error in doit(x) : Couldn't calculate mean: too few unique points!
Error in doit(x) : Couldn't calculate mean: too few unique points!
Error in doit(x) : Couldn't calculate mean: too few unique points!
Error in doit(x) : Couldn't calculate mean: too few unique points!
Error in doit(x) : Couldn't calculate mean: too few unique points!
Error in doit(x) : Couldn't calculate mean: too few unique points!
Error in doit(x) : Couldn't calculate mean: too few unique points!
Error in doit(x) : Couldn't calculate mean: too few unique points!
Error in doit(x) : Couldn't calculate mean: too few unique points!
Error in doit(x) : Couldn't calculate mean: too few unique points!
Error in doit(x) : Couldn't calculate mean: too few unique points!
Error in doit(x) : Couldn't calculate mean: too few unique points!
Error in doit(x) : Couldn't calculate mean: too few unique points!
Error in doit(x) : Couldn't calculate mean: too few unique points!
Error in doit(x) : Couldn't calculate mean: too few unique points!
Error in doit(x) : Couldn't calculate mean: too few unique points!
Error in doit(x) : Couldn't calculate mean: too few unique points!
Error in doit(x) : Couldn't calculate mean: too few unique points!
Error in doit(x) : Couldn't calculate mean: too few unique points!
Error in doit(x) : Couldn't calculate mean: too few unique points!
Error in doit(x) : Couldn't calculate mean: too few unique points!
Error in doit(x) : Couldn't calculate mean: too few unique points!
Error in doit(x) : Couldn't calculate mean: too few unique points!
Error in doit(x) : Couldn't calculate mean: too few unique points!
Error in doit(x) : Couldn't calculate mean: too few unique points!
Error in doit(x) : Couldn't calculate mean: too few unique points!
Error in doit(x) : Couldn't calculate mean: too few unique points!
Error in doit(x) : Couldn't calculate mean: too few unique points!
Error in doit(x) : Couldn't calculate mean: too few unique points!
Error in doit(x) : Couldn't calculate mean: too few unique points!

======================================================================
Inspecting script file apply2.R...

File contents are:
**********************************************************************
# apply2.R
# Author: Hanyun Zhang hanyun.zhang18@imperial.ac.uk
# Desc: applying the same function to rows/colums of a matrix
# Arguments: none
# Date: Oct 2018

SomeOperation <- function(v){ 
  if (sum(v) > 0){
    return (v * 100)
  }
  return (v)
}

M <- matrix(rnorm(100), 10, 10)
print (apply(M, 1, SomeOperation)) # apply the function to rows**********************************************************************

Testing apply2.R...

Output (only first 500 characters): 

**********************************************************************
            [,1]       [,2]         [,3]       [,4]        [,5]        [,6]
 [1,] -0.9863696 -1.3797887  0.182119751  -6.265789  -40.698970 -0.50105167
 [2,]  0.4533380 -0.3089126  0.045136502 -32.417369   32.097729  0.31713508
 [3,]  0.3543157 -0.8043474 -0.002969506  40.160506  -83.505524  1.66269308
 [4,]  0.4807679 -0.7805008  0.667414540  16.701131  123.076098 -0.05867636
 [5,]  0.6917852 -1.5384185  0.298169037 251.183640 -106.605634 -0.39026819
 [6,] -1.3844502  1.2841794 -0.899919408 -69.
**********************************************************************

Code ran without errors

Time consumed = 0.09018s

======================================================================
Inspecting script file get_TreeHeight.R...

File contents are:
**********************************************************************
# get_TreeHeight.R
# Author: Hanyun Zhang hanyun.zhang18@imperial.ac.uk
# Desc: Calculate tree heights and output to a file with file name defined
# by the input file name
# Arguments: ../data/trees.csv
# Date: Oct 2018

# This function calculates heights of trees given distance of each tree 
# from its base and angle to its top, using  the trigonometric formula 
#
# height = distance * tan(radians)
#
# ARGUMENTS
# degrees:   The angle of elevation of tree
# distance:  The distance from base of tree (e.g., meters)
#
# OUTPUT
# The heights of the tree, same units as "distance"

# Input from argument, and set default input if no argument provided on command line
args <- commandArgs(TRUE)
if(length(args) == 1){
Data <- read.csv(commandArgs(trailingOnly = TRUE), header = TRUE)
} else{
Data <- read.csv("../data/trees.csv", header = TRUE)}

# Calculate treeheights based on degrees and distance
TreeHeight <- function(degrees, distance){
  radians <- degrees * pi / 180
  height <- distance * tan(radians)
  print(paste("Tree height is:", height))
  
  return (height)
}
# Takes the degrees and distance in trees.csv and calculate treeheights
TreeHts <- TreeHeight(Data[,3], Data[,2])
# Add a new column
Data$Tree.Height.m <- TreeHts

if(length(args) == 1){
# Define the name of output file based on filename of the argument
# Copy the comment line argument 
path <- commandArgs(trailingOnly = TRUE)
# Extract filename from the path, without extension
filename <- sub("(.*)\\..*$", "\\1", basename(path))
# Define name of the output file
output_path <- paste("../results/", filename, "_treeheights.csv")
# saves output to a csv file with defined name
write.csv(Data, output_path, row.names=TRUE)
}else{
# Set default output filename if no argument provided
write.csv(Data, "../results/trees_treeheights.csv", row.names = TRUE)}
**********************************************************************

Testing get_TreeHeight.R...

Output (only first 500 characters): 

**********************************************************************
  [1] "Tree height is: 27.8021161438536" "Tree height is: 45.2460250644405"
  [3] "Tree height is: 14.6654828109493" "Tree height is: 14.9341751666304"
  [5] "Tree height is: 35.9703591412599" "Tree height is: 32.4102133664874"
  [7] "Tree height is: 17.4582436344144" "Tree height is: 30.1373803987097"
  [9] "Tree height is: 20.3124778877177" "Tree height is: 24.4316633466933"
 [11] "Tree height is: 27.5021323376702" "Tree height is: 25.1559006982628"
 [13] "Tree height is: 29.3924796426504" "Tre
**********************************************************************

Code ran without errors

Time consumed = 0.08476s

======================================================================
Inspecting script file TAutoCorr.R...

File contents are:
**********************************************************************
# TAutoCorr.R
# Author: Hanyun Zhang hanyun.zhang18@imperial.ac.uk
# Desc: Investigate the correlation between the
# temperature of successive years
# Arguments: none
# Date: Oct 2018

# Load the data
load("../data/KeyWestAnnualMeanTemperature.RData")

# Scatterplot of data
p <- plot(ats$Year, ats$Temp, xlab = "Year", ylab = "Temperature")

## Get a correlation coefficient for temperature of successive years
Cor <- cor(ats$Temp[1:99],ats$Temp[2:100])

##  Recalculates the correlation for each randomly permuted year sequence
# Initiates an empty vector
Corrandom = vector()
# Repeats 10000 times
for (i in 1:10000){ 
  # For every repeat,randomly pair years and repeat 50 times
  yrrandom <- replicate(50, sample(ats$Temp, size = 2, replace = F))
  yrrandom <- t(yrrandom) # Swap the column and row
  # Calculates the correlation coefficient
  Corrandom[i] <- cor(yrrandom[,1],yrrandom[,2])
  }

## Compute a fraction of the permuted correlation coefficients above the
## coefficient for the actual data
number = 0
for (i in 1:10000){
  if (Corrandom[i] >= Cor){
    number = number + 1
  }
}
pvalue <- number/length(Corrandom)
print(paste("Approximate p-value:", pvalue))  

## Density plot of the permuted correlation coefficients
library(ggplot2)

dp <- ggplot(data.frame(Corrandom), aes(x = Corrandom)) + 
  geom_density() + 
  geom_vline(aes(xintercept = Cor), linetype = "longdash") + 
  xlab("Permuted correlation coefficient") + ylab("Density") 

print(dp)**********************************************************************

Testing TAutoCorr.R...

Output (only first 500 characters): 

**********************************************************************
[1] "Approximate p-value: 0.0089"

**********************************************************************

Code ran without errors

Time consumed = 8.04834s

======================================================================
Inspecting script file Vectorize2.R...

File contents are:
**********************************************************************
# Vectorize1.R
# Author: Hanyun Zhang hanyun.zhang18@imperial.ac.uk
# Desc:  Different ways to run the stochastic Ricker model   
# Arguments: none
# Date: Oct 2018

# Runs the stochastic (with gaussian fluctuations) Ricker Eqn .

rm(list=ls())

stochrick<-function(p0=runif(1000,.5,1.5),r=1.2,K=1,sigma=0.2,numyears=100)
{
  #initialize
  N<-matrix(NA,numyears,length(p0))
  N[1,]<-p0
  
  for (pop in 1:length(p0)) #loop through the populations
  {
    for (yr in 2:numyears) #for each pop, loop through the years
    {
      N[yr,pop]<-N[yr-1,pop]*exp(r*(1-N[yr-1,pop]/K)+rnorm(1,0,sigma))
    }
  }
 return(N)

}
data = stochrick()
print("Looping Stochastic Ricker takes:")
print(system.time(res1<-stochrick()))

# Now write another function called stochrickvect that vectorizes the above 
# to the extent possible, with improved performance: 

rm(list=ls()) # clear objects in workspace

stochrickvect<- function(p0=runif(1000,.5,1.5),r=1.2,K=1,sigma=0.2,numyears=100)
{N<-matrix(NA,numyears,length(p0))
  N[1,]<-p0 # Assign random value to the first generation

  for (yr in 2:numyears) #for all pop, loop through the years
  {
    N[yr,]<-N[yr-1,]*exp(r*(1-N[yr-1,]/K)+rnorm(1,0,sigma))
  }
 return(N)
}
data = stochrickvect()
print("Vectorized Stochastic Ricker takes:")
print(system.time(res2<-stochrickvect()))


**********************************************************************

Testing Vectorize2.R...

Output (only first 500 characters): 

**********************************************************************
[1] "Looping Stochastic Ricker takes:"
   user  system elapsed 
  0.204   0.000   0.202 
[1] "Vectorized Stochastic Ricker takes:"
   user  system elapsed 
  0.008   0.000   0.009 

**********************************************************************

Code ran without errors

Time consumed = 0.56049s

======================================================================
Inspecting script file DataWrangTidy.R...

File contents are:
**********************************************************************
# DataWrangTidy.R
# Author: Hanyun Zhang hanyun.zhang18@imperial.ac.uk
# Desc: Examples of data wrangling using dplyr and tidyr
# Arguments: none
# Date: Oct 2018

################################################################
################## Wrangling the Pound Hill Dataset ############
################################################################

# Installation
# install.packages("dplyr")
# install.packages("tidyr")

############# Load the dataset ###############
# header = false because the raw data don't have real headers
MyData <- as.matrix(read.csv("../data/PoundHillData.csv",header = F)) 

# header = true because we do have metadata headers
MyMetaData <- read.csv("../data/PoundHillMetaData.csv",header = T, sep=";", stringsAsFactors = F)

############# Inspect the dataset ###############
head(MyData)
dim(MyData)
str(MyData)
fix(MyData) #you can also do this
fix(MyMetaData)

############# Transpose ###############
# To get those species into columns and treatments into rows 
MyData <- t(MyData) 
head(MyData)
dim(MyData)

############# Replace species absences with zeros ###############
MyData[MyData == ""] = 0

############# Convert raw matrix to data frame ###############

TempData <- as.data.frame(MyData[-1,],stringsAsFactors = F) #stringsAsFactors = F is important!Excludes the first row
colnames(TempData) <- MyData[1,] # assign column names from original data

############# Convert from wide to long format  ###############
require(dplyr)
require(tidyr) # load the dplyr, tidyr package

# Gather all variables in TempData except cultivation, blot, ..., calling the new key column "Species",
# and the new value column "Count"
# "%>%" functions as a pipeline that passes object on the left as argument to the function on the right
MyWrangledData <- TempData %>% gather(., Species, Count, -Cultivation, -Block, -Plot, -Quadrat) %>%
  mutate( Cultivation = as.factor(Cultivation),
        Block = as.factor(Block),
        Plot = as.factor(Plot),
        Quadrat = as.factor(Quadrat),
        Species = as.factor(Species),
        Count = as.numeric(Count)) 

str(MyWrangledData)
head(MyWrangledData)
dim(MyWrangledData)

############# Start exploring the data (extend the script below)!  ###############
# View data set in spreadsheet-like display
utils::View(MyWrangledData)

# Group data based on species
dplyr::group_by(MyWrangledData, Species)

# Calculate the mean count for each species
mean_species <- dplyr::group_by(MyWrangledData, Species) %>%
  summarise(., avg = mean(Count))



**********************************************************************

Testing DataWrangTidy.R...

Output (only first 500 characters): 

**********************************************************************
     V1                     V2        V3        V4        V5        V6       
[1,] "Cultivation"          "october" "october" "october" "october" "october"
[2,] "Block"                "a"       "a"       "a"       "a"       "a"      
[3,] "Plot"                 "1"       "1"       "1"       "1"       "1"      
[4,] "Quadrat"              "Q1"      "Q2"      "Q3"      "Q4"      "Q5"     
[5,] "Achillea millefolium" "4"       "8"       "3"       "20"      "6"      
[6,] "Agrostis gigantea"    ""   
**********************************************************************

Code ran without errors

Time consumed = 10.00783s

======================================================================
Inspecting script file PP_Regress_loc.R...

File contents are:
**********************************************************************
# PP_Regress_loc.R
# Author: Hanyun Zhang hanyun.zhang18@imperial.ac.uk
# Desc: Draw a regression plot with linear model and saves
# the regression results to a .csv file, with the data grouped
# by type of feeding interaction, predator lifestage and location
# Arguments: none
# Date: Oct 2018

## Import predator-prey dataset
MyDF <- read.csv("../data/EcolArchives-E089-51-D1.csv")

## Create data frame for linear regression results
# dplyr groups data frame by lifestage, feeding type and location, 
# then applys the function to each piece and 
# returns results to a new data frame.
library(dplyr)

# Create a function to extract values from regression summary
Values <- function(Predator.mass, Prey.mass){
  lmmodel <- lm(log(Predator.mass) ~ log(Prey.mass))
  my_lm <- summary(lmmodel)
  Slop <- my_lm$coefficients[2]
  Intercept <- my_lm$coefficients[1]
  Rsquared <- my_lm$adj.r.squared
  Fvalue <- my_lm$fstatistic[[1]] # Double "[]" get the number from a vector mixed with text 
  Pvalue <- my_lm$coefficients[8] 
  return(c(Slop, Intercept, Rsquared, Fvalue, Pvalue))
}

# Group_by organizes data set into groups, summarise applys the functions to each group
# then returns results to a new data frame.
results <- MyDF %>% group_by(Predator.lifestage, Type.of.feeding.interaction, Location) %>%
            summarise(Slop = Values(Predator.mass, Prey.mass)[1],
            Intercept = Values(Predator.mass, Prey.mass)[2],
            Rsquared = Values(Predator.mass, Prey.mass)[3],
            Fvalue = Values(Predator.mass, Prey.mass)[4], 
            Pvalue = Values(Predator.mass, Prey.mass)[5])

# Define header names for each column
colnames(results) <- c("Predator.lifestage", "Type.of.feeding.interaction", "Location", "regression slope", 
                       "regression intercept", "R^2", " F-statistic value", "p-value of the overall regression")

# Save results to a file
write.csv(results, "../results/PP_Regress_Results_loc.csv", row.names = F)

## Note: NA occurs when the sample size of a group is two or one.
**********************************************************************

Testing PP_Regress_loc.R...

Output (only first 500 characters): 

**********************************************************************

**********************************************************************

Encountered error:

Attaching package: ‘dplyr’

The following objects are masked from ‘package:stats’:

    filter, lag

The following objects are masked from ‘package:base’:

    intersect, setdiff, setequal, union

Warning messages:
1: In summary.lm(lmmodel) :
  essentially perfect fit: summary may be unreliable
2: In summary.lm(lmmodel) :
  essentially perfect fit: summary may be unreliable
3: In summary.lm(lmmodel) :
  essentially perfect fit: summary may be unreliable
4: In summary.lm(lmmodel) :
  essentially perfect fit: summary may be unreliable
5: In summary.lm(lmmodel) :
  essentially perfect fit: summary may be unreliable

======================================================================
Inspecting script file DataWrang.R...

File contents are:
**********************************************************************
# DataWrang.R
# Author: Hanyun Zhang hanyun.zhang18@imperial.ac.uk
# Desc: Examples of data wrangling using reshape2
# Arguments: none
# Date: Oct 2018

################################################################
################## Wrangling the Pound Hill Dataset ############
################################################################

############# Load the dataset ###############
# header = false because the raw data don't have real headers
MyData <- as.matrix(read.csv("../data/PoundHillData.csv",header = F)) 

# header = true because we do have metadata headers
MyMetaData <- read.csv("../data/PoundHillMetaData.csv",header = T, sep=";", stringsAsFactors = F)

############# Inspect the dataset ###############
head(MyData)
dim(MyData)
str(MyData)
fix(MyData) #you can also do this
fix(MyMetaData)

############# Transpose ###############
# To get those species into columns and treatments into rows 
MyData <- t(MyData) 
head(MyData)
dim(MyData)

############# Replace species absences with zeros ###############
MyData[MyData == ""] = 0

############# Convert raw matrix to data frame ###############

TempData <- as.data.frame(MyData[-1,],stringsAsFactors = F) #stringsAsFactors = F is important!Excludes the first row
colnames(TempData) <- MyData[1,] # assign column names from original data

############# Convert from wide to long format  ###############
require(reshape2) # load the reshape2 package

?melt #check out the melt function

MyWrangledData <- melt(TempData, id=c("Cultivation", "Block", "Plot", "Quadrat"), 
variable.name = "Species", value.name = "Count")

MyWrangledData[, "Cultivation"] <- as.factor(MyWrangledData[, "Cultivation"])
MyWrangledData[, "Block"] <- as.factor(MyWrangledData[, "Block"])
MyWrangledData[, "Plot"] <- as.factor(MyWrangledData[, "Plot"])
MyWrangledData[, "Quadrat"] <- as.factor(MyWrangledData[, "Quadrat"])
MyWrangledData[, "Count"] <- as.numeric(MyWrangledData[, "Count"])

str(MyWrangledData)
head(MyWrangledData)
dim(MyWrangledData)
**********************************************************************

Testing DataWrang.R...

Output (only first 500 characters): 

**********************************************************************
     V1                     V2        V3        V4        V5        V6       
[1,] "Cultivation"          "october" "october" "october" "october" "october"
[2,] "Block"                "a"       "a"       "a"       "a"       "a"      
[3,] "Plot"                 "1"       "1"       "1"       "1"       "1"      
[4,] "Quadrat"              "Q1"      "Q2"      "Q3"      "Q4"      "Q5"     
[5,] "Achillea millefolium" "4"       "8"       "3"       "20"      "6"      
[6,] "Agrostis gigantea"    ""   
**********************************************************************

Code ran without errors

Time consumed = 10.00729s

======================================================================
Inspecting script file MyBars.R...

File contents are:
**********************************************************************
# MyBars.R
# Author: Hanyun Zhang hanyun.zhang18@imperial.ac.uk
# Desc: Examples of plot annotation
# Arguments: none
# Date: Oct 2018

# Installation
# install.packages("ggplot2")

# Import data and create pdf
a <- read.table("../data/Results.txt", header = TRUE)
head(a)
pdf("../results/MyBars.pdf")

a$ymin <- rep(0, dim(a)[1]) # append a column of zeros

# Print the first linerange
require(ggplot2)
p <- ggplot(a)
p <- p + geom_linerange(data = a, aes(
  x = x,
  ymin = ymin,
  ymax = y1,
  size = (0.5)
),
colour = "#E69F00",
alpha = 1/2, show.legend = FALSE)

# Print the second linerange
p <- p + geom_linerange(data = a, aes(
  x = x,
  ymin = ymin,
  ymax = y2,
  size = (0.5)
),
colour = "#56B4E9",
alpha = 1/2, show.legend = FALSE)

# Print the third linerange:
p <- p + geom_linerange(data = a, aes(
  x = x,
  ymin = ymin,
  ymax = y3,
  size = (0.5)
),
colour = "#D55E00",
alpha = 1/2, show.legend = FALSE)

# Annotate the plot with labels:
p <- p + geom_text(data = a, aes(x = x, y = -500, label = Label))

# now set the axis labels, remove the legend, and prepare for bw printing
p <- p + scale_x_continuous("My x axis",
                            breaks = seq(3, 5, by = 0.05)) + 
  scale_y_continuous("My y axis") + 
  theme_bw() + 
  theme(legend.position = "none") 
p
graphics.off()**********************************************************************

Testing MyBars.R...

Output (only first 500 characters): 

**********************************************************************
         x   y1   y2 y3 Label
1 3.515424 4320 4320  0  <NA>
2 3.533984 2160 2160  0  <NA>
3 3.557647 4320 4320  0  <NA>
4 3.569953 4320 4320  0  <NA>
5 3.578984 8640 8640  0  <NA>
6 3.585665 2160 2160  0  <NA>

**********************************************************************

Encountered error:
Loading required package: ggplot2
Warning message:
Removed 91 rows containing missing values (geom_text). 

======================================================================
Inspecting script file control.R...

File contents are:
**********************************************************************
# control.R
# Author: Hanyun Zhang hanyun.zhang18@imperial.ac.uk
# Desc: Some code exemplifying control flow constructs in R 
# Arguments: none
# Date: Oct 2018

## If statement
a <- TRUE
if (a == TRUE){
  print ("a is TRUE")
} else {
  print ("a is FALSE")
}

## On a single line
z <- runif(1) ##random number
if (z <= 0.5) {
  print ("Less than a quarter")
}

## For loop using a sequence
for (i in 1:100){
  j <- i * i
  print(paste(i, " squared is", j ))
}

## For loop over vector of strings
for(species in c('Heliodoxa rubinoides', 
                 'Boissonneaua jardini', 
                 'Sula nebouxii'))
{
  print(paste('The species is', species))
}

## for loop using a vector
v1 <- c("a","bc","def")
for (i in v1){
  print(i)
}

## While loop
i <- 0
while (i<100){
  i <- i+1
  print(i^2)
}**********************************************************************

Testing control.R...

Output (only first 500 characters): 

**********************************************************************
[1] "a is TRUE"
[1] "Less than a quarter"
[1] "1  squared is 1"
[1] "2  squared is 4"
[1] "3  squared is 9"
[1] "4  squared is 16"
[1] "5  squared is 25"
[1] "6  squared is 36"
[1] "7  squared is 49"
[1] "8  squared is 64"
[1] "9  squared is 81"
[1] "10  squared is 100"
[1] "11  squared is 121"
[1] "12  squared is 144"
[1] "13  squared is 169"
[1] "14  squared is 196"
[1] "15  squared is 225"
[1] "16  squared is 256"
[1] "17  squared is 289"
[1] "18  squared is 324"
[1] "19  squared is 361"
[1] "
**********************************************************************

Code ran without errors

Time consumed = 0.09366s

======================================================================
======================================================================
Finished running scripts

Ran into 8 errors

======================================================================
======================================================================

FINISHED WEEKLY ASSESSMENT

Current Points for the Week = 100

NOTE THAT THESE ARE POINTS, NOT MARKS FOR THE WEEK!